(footprint "AMS_OLGA12" (version 20221018) (generator pcbnew)
  (layer "F.Cu")
  (descr "TMF8820/1/8 distance sensor")
  (tags "TMF8820 TMF8821 TMF8828 ")
  (attr smd)
  (fp_text reference "REF**" (at 0 -3.25) (layer "F.SilkS")
      (effects (font (size 1 1) (thickness 0.15)))
    (tstamp c101413a-cfb3-4c78-bbd5-935859b63b75)
  )
  (fp_text value "AMS_OLGA12" (at 0 3.4) (layer "F.Fab")
      (effects (font (size 1 1) (thickness 0.15)))
    (tstamp c49a1cf6-7fc3-4f70-8132-1e05c79ac46e)
  )
  (fp_text user "${REFERENCE}" (at 0 0) (layer "F.Fab")
      (effects (font (size 1 1) (thickness 0.15)))
    (tstamp f9e32640-7b42-42e7-85db-aaa63abf17aa)
  )
  (fp_line (start -1.1 -2.4) (end -0.5 -2.4)
    (stroke (width 0.12) (type default)) (layer "F.SilkS") (tstamp 6ff12eb9-da12-4e4a-bd82-dedee8bdd9fe))
  (fp_line (start 0.5 -2.4) (end 1.1 -2.4)
    (stroke (width 0.12) (type default)) (layer "F.SilkS") (tstamp 8039ded5-4d7a-449e-b19b-de5637ff6fc2))
  (fp_line (start 0.5 2.4) (end 1.1 2.4)
    (stroke (width 0.12) (type default)) (layer "F.SilkS") (tstamp f601237b-b6b1-4b50-8ded-8c2894418e80))
  (fp_rect (start -0.652 0.531) (end 0.652 1.719)
    (stroke (width 0.05) (type default)) (fill none) (layer "Cmts.User") (tstamp 1eb9723d-44e8-4f72-8392-5f00cc781b95))
  (fp_rect (start -0.577 -1.777) (end 0.577 -0.739)
    (stroke (width 0.05) (type default)) (fill none) (layer "Cmts.User") (tstamp c867f3ec-eaa1-4520-bd11-729e5dca1156))
  (fp_rect (start -0.45 0.675) (end 0.45 1.575)
    (stroke (width 0.05) (type default)) (fill none) (layer "Cmts.User") (tstamp 44eca577-a386-41fa-affa-39bffe8efe02))
  (fp_rect (start -0.4035 -1.651) (end 0.4035 -0.865)
    (stroke (width 0.05) (type default)) (fill none) (layer "Cmts.User") (tstamp ba00ad27-9b7e-462f-92c3-e91c1a68b85d))
  (fp_rect (start -1.25 -2.55) (end 1.25 2.55)
    (stroke (width 0.05) (type default)) (fill none) (layer "F.CrtYd") (tstamp bfc34f08-4337-4827-9880-08cce7b65aea))
  (fp_line (start -1 -2.3) (end -1 1.7)
    (stroke (width 0.1) (type default)) (layer "F.Fab") (tstamp 17c01852-b35b-4819-9382-d9d848eabe83))
  (fp_line (start -1 -2.3) (end 1 -2.3)
    (stroke (width 0.1) (type default)) (layer "F.Fab") (tstamp dc4d72c6-690b-425d-89c8-99fd09868a1f))
  (fp_line (start -1 1.7) (end -0.4 2.3)
    (stroke (width 0.1) (type default)) (layer "F.Fab") (tstamp 348d14e2-b33c-42ac-bf0e-48cf1110216a))
  (fp_line (start 1 2.3) (end -0.4 2.3)
    (stroke (width 0.1) (type default)) (layer "F.Fab") (tstamp 609bbb90-8631-40e5-8d77-57b5a3394e62))
  (fp_line (start 1 2.3) (end 1 -2.3)
    (stroke (width 0.1) (type default)) (layer "F.Fab") (tstamp dd39413c-5cb3-4551-bca4-e083aece914e))
  (pad "1" smd roundrect (at -0.675 2.05) (size 0.5 0.35) (layers "F.Cu" "F.Paste" "F.Mask") (roundrect_rratio 0)
    (chamfer_ratio 0.28) (chamfer top_right)
    (thermal_bridge_angle 45) (tstamp e6aabbc5-c34b-4b46-8f93-f78b642bc6c1))
  (pad "2" smd roundrect (at -0.675 1.23) (size 0.5 0.35) (layers "F.Cu" "F.Paste" "F.Mask") (roundrect_rratio 0.25)
    (thermal_bridge_angle 45) (tstamp e3954ca0-32de-4d2c-b479-2cf882f6103d))
  (pad "3" smd roundrect (at -0.675 0.41) (size 0.5 0.35) (layers "F.Cu" "F.Paste" "F.Mask") (roundrect_rratio 0.25)
    (thermal_bridge_angle 45) (tstamp dad5aebb-eed2-4df7-8fb9-3741a72aaa9a))
  (pad "4" smd roundrect (at -0.675 -0.41) (size 0.5 0.35) (layers "F.Cu" "F.Paste" "F.Mask") (roundrect_rratio 0.25)
    (thermal_bridge_angle 45) (tstamp a265b437-f1d8-496e-b8fa-1f65b4e1bd96))
  (pad "5" smd roundrect (at -0.675 -1.23) (size 0.5 0.35) (layers "F.Cu" "F.Paste" "F.Mask") (roundrect_rratio 0.25)
    (thermal_bridge_angle 45) (tstamp dafb00a5-cc00-4ec3-90d3-8c81c557dc7e))
  (pad "6" smd roundrect (at -0.675 -2.05) (size 0.5 0.35) (layers "F.Cu" "F.Paste" "F.Mask") (roundrect_rratio 0.25)
    (thermal_bridge_angle 45) (tstamp 3decba78-ce4c-45e6-9ea6-815dd3faaaf4))
  (pad "7" smd roundrect (at 0.635 -2.05) (size 0.5 0.35) (layers "F.Cu" "F.Paste" "F.Mask") (roundrect_rratio 0.25)
    (thermal_bridge_angle 45) (tstamp 8684c542-e3d3-49ac-a466-dc2dd6965d3b))
  (pad "8" smd roundrect (at 0.635 -1.23) (size 0.5 0.35) (layers "F.Cu" "F.Paste" "F.Mask") (roundrect_rratio 0.25)
    (thermal_bridge_angle 45) (tstamp a1c4cf92-fb08-4b0d-bdb7-59ed4fc6b33a))
  (pad "9" smd roundrect (at 0.635 -0.41) (size 0.5 0.35) (layers "F.Cu" "F.Paste" "F.Mask") (roundrect_rratio 0.25)
    (thermal_bridge_angle 45) (tstamp 4f467935-b6d2-42c8-b824-a4cc3e184dd7))
  (pad "10" smd roundrect (at 0.635 0.41) (size 0.5 0.35) (layers "F.Cu" "F.Paste" "F.Mask") (roundrect_rratio 0.25)
    (thermal_bridge_angle 45) (tstamp 5a18e0b1-5692-44a8-82b8-3c8537cdf523))
  (pad "11" smd roundrect (at 0.635 1.23) (size 0.5 0.35) (layers "F.Cu" "F.Paste" "F.Mask") (roundrect_rratio 0.25)
    (thermal_bridge_angle 45) (tstamp be45d97e-3a89-4ce3-8e15-8ab23997040e))
  (pad "12" smd roundrect (at 0.635 2.05) (size 0.5 0.35) (layers "F.Cu" "F.Paste" "F.Mask") (roundrect_rratio 0.25)
    (thermal_bridge_angle 45) (tstamp 5360748d-a66a-4c00-90ff-dde10a4247d8))
  (model "${KICAD7_3DMODEL_DIR}/Sensor_Distance.3dshapes/AMS_OLGA12.wrl"
    (offset (xyz 0 0 0))
    (scale (xyz 1 1 1))
    (rotate (xyz 0 0 0))
  )
)
