(footprint "Quectel_BG96" (version 20221018) (generator pcbnew)
  (layer "F.Cu")
  (descr "Quectel BG96 Cellular GSM 2G Module https://www.quectel.com/download/quectel_bg96_hardware_design_v1-4")
  (tags "Quectel BG96 Cellular GSM 2G Module")
  (attr smd)
  (fp_text reference "REF**" (at 0 -15) (layer "F.SilkS")
      (effects (font (size 1 1) (thickness 0.15)))
    (tstamp 265d021c-e2f0-4eda-b9b2-ac38d89c1a5d)
  )
  (fp_text value "Quectel_BG96" (at 0 15) (layer "F.Fab")
      (effects (font (size 1 1) (thickness 0.15)))
    (tstamp db7e2ca5-8a90-4f60-9410-3c5c2932ab8f)
  )
  (fp_text user "${REFERENCE}" (at 0 0) (layer "F.Fab")
      (effects (font (size 1 1) (thickness 0.15)))
    (tstamp 37c75699-86e9-40c6-898e-bcce0c9b514e)
  )
  (fp_line (start -11.7 -10.2) (end -11.7 -9.2)
    (stroke (width 0.12) (type solid)) (layer "F.SilkS") (tstamp c648b041-e489-46c0-825e-20ceceaea1ab))
  (fp_line (start -11.4 -13.4) (end 11.4 -13.4)
    (stroke (width 0.12) (type solid)) (layer "F.SilkS") (tstamp 4cda6c47-d1e3-431e-9324-cc63fc302ae0))
  (fp_line (start -11.4 13.4) (end -11.4 -13.4)
    (stroke (width 0.12) (type solid)) (layer "F.SilkS") (tstamp 8a20ca4d-4d3f-4888-aa05-ac80bdae1166))
  (fp_line (start 11.4 -13.4) (end 11.4 13.4)
    (stroke (width 0.12) (type solid)) (layer "F.SilkS") (tstamp c96a3ed5-36f7-4800-b579-c12b723db579))
  (fp_line (start 11.4 13.4) (end -11.4 13.4)
    (stroke (width 0.12) (type solid)) (layer "F.SilkS") (tstamp 75fc08fd-8257-4f6a-a37f-287b0eae6ca7))
  (fp_rect (start -12.25 -14.25) (end 12.25 14.25)
    (stroke (width 0.05) (type solid)) (fill none) (layer "F.CrtYd") (tstamp 357a7273-4727-4a16-95cd-13a54722bc4c))
  (fp_line (start -11.25 -12.33) (end -10.33 -13.25)
    (stroke (width 0.1) (type solid)) (layer "F.Fab") (tstamp ca95af04-b30b-4d67-83b7-cb345bbf22f5))
  (fp_line (start -11.25 -10.2) (end -10.25 -9.7)
    (stroke (width 0.1) (type solid)) (layer "F.Fab") (tstamp 71354602-1f6d-49bc-b55c-855f8e8b8fce))
  (fp_line (start -11.25 13.25) (end -11.25 -12.33)
    (stroke (width 0.1) (type solid)) (layer "F.Fab") (tstamp 90e63f95-0174-4766-b7e7-ed3caa0c92b5))
  (fp_line (start -10.33 -13.25) (end 11.25 -13.25)
    (stroke (width 0.1) (type solid)) (layer "F.Fab") (tstamp a2fc1ab0-c71f-478f-87f1-005d58792087))
  (fp_line (start -10.25 -9.7) (end -11.25 -9.2)
    (stroke (width 0.1) (type solid)) (layer "F.Fab") (tstamp c918107c-0ee1-480f-900e-d64716ac9c88))
  (fp_line (start 11.25 -13.25) (end 11.25 13.25)
    (stroke (width 0.1) (type solid)) (layer "F.Fab") (tstamp d58b9644-9102-4aee-8570-6f620252f1b2))
  (fp_line (start 11.25 13.25) (end -11.25 13.25)
    (stroke (width 0.1) (type solid)) (layer "F.Fab") (tstamp 602a6e00-79a9-4399-8ab7-6db8944b1951))
  (pad "" smd roundrect (at -9.18 -9.7) (size 1.1 0.6) (layers "F.Paste") (roundrect_rratio 0.25) (tstamp 92adc2a7-705f-4e7b-90a7-1c91d9f5977d))
  (pad "" smd roundrect (at -9.18 -8.6) (size 1.1 0.6) (layers "F.Paste") (roundrect_rratio 0.25) (tstamp 210b4586-7fb1-453c-a012-150951ba2378))
  (pad "" smd roundrect (at -9.18 -7.5) (size 1.1 0.6) (layers "F.Paste") (roundrect_rratio 0.25) (tstamp 7713a595-9783-456a-b872-e287f366565c))
  (pad "" smd roundrect (at -9.18 -6.4) (size 1.1 0.6) (layers "F.Paste") (roundrect_rratio 0.25) (tstamp e7f4f65b-4817-4bf4-8a32-98fca2dc75cb))
  (pad "" smd roundrect (at -9.18 -5.3) (size 1.1 0.6) (layers "F.Paste") (roundrect_rratio 0.25) (tstamp b6951de8-f291-4b8d-b19a-b7672e467037))
  (pad "" smd roundrect (at -9.18 -4.2) (size 1.1 0.6) (layers "F.Paste") (roundrect_rratio 0.25) (tstamp aa11e936-cdab-420f-a78f-caa32c69260a))
  (pad "" smd roundrect (at -9.18 -3.1) (size 1.1 0.6) (layers "F.Paste") (roundrect_rratio 0.25) (tstamp 57e87282-fda0-4fe1-9c9f-ad677bd23537))
  (pad "" smd roundrect (at -9.18 -2) (size 1.1 0.6) (layers "F.Paste") (roundrect_rratio 0.25) (tstamp 9449bab2-cd39-4c54-9ab1-20d7b3fe8713))
  (pad "" smd roundrect (at -9.18 -0.9) (size 1.1 0.6) (layers "F.Paste") (roundrect_rratio 0.25) (tstamp 0f4e4efe-dbfd-4d8e-846f-b5579e1bec3c))
  (pad "" smd roundrect (at -9.18 0.2) (size 1.1 0.6) (layers "F.Paste") (roundrect_rratio 0.25) (tstamp 267f21dc-eb4d-4356-a9ba-52fdccf36790))
  (pad "" smd roundrect (at -9.18 1.9) (size 1.1 0.6) (layers "F.Paste") (roundrect_rratio 0.25) (tstamp 0948929a-3b1b-4037-9169-f6cddd5f437f))
  (pad "" smd roundrect (at -9.18 3) (size 1.1 0.6) (layers "F.Paste") (roundrect_rratio 0.25) (tstamp c0dd5973-99bd-4f9b-b2d9-6f49662ccef2))
  (pad "" smd roundrect (at -9.18 4.1) (size 1.1 0.6) (layers "F.Paste") (roundrect_rratio 0.25) (tstamp 3becf58c-a2dc-4ce5-84ad-69a317032a70))
  (pad "" smd roundrect (at -9.18 5.2) (size 1.1 0.6) (layers "F.Paste") (roundrect_rratio 0.25) (tstamp bae757e5-4a6a-4b35-b534-086d45a773a3))
  (pad "" smd roundrect (at -9.18 6.3) (size 1.1 0.6) (layers "F.Paste") (roundrect_rratio 0.25) (tstamp b2378da6-e2ca-4d72-b596-7542562dd22f))
  (pad "" smd roundrect (at -9.18 7.4) (size 1.1 0.6) (layers "F.Paste") (roundrect_rratio 0.25) (tstamp cf95b885-b799-47a5-9fa5-79d0451612e4))
  (pad "" smd roundrect (at -9.18 8.5) (size 1.1 0.6) (layers "F.Paste") (roundrect_rratio 0.25) (tstamp abfbd619-7cca-4c0a-9288-874d424313a3))
  (pad "" smd roundrect (at -9.18 9.6) (size 1.1 0.6) (layers "F.Paste") (roundrect_rratio 0.25) (tstamp c3f4e4fd-33f7-404b-a4b5-b1fa76c627d6))
  (pad "" smd roundrect (at -7.45 -11.03 270) (size 1.1 0.6) (layers "F.Paste") (roundrect_rratio 0.25) (tstamp 030b4ede-937c-4f08-9cf7-8df3a1815044))
  (pad "" smd roundrect (at -7.45 11.03 90) (size 1.1 0.6) (layers "F.Paste") (roundrect_rratio 0.25) (tstamp 8152e6f5-b60f-4c0c-ac89-7de02362ab60))
  (pad "" smd roundrect (at -6.35 -11.03 270) (size 1.1 0.6) (layers "F.Paste") (roundrect_rratio 0.25) (tstamp f104fbb6-3906-4af3-bb85-70d38e07500a))
  (pad "" smd roundrect (at -6.35 11.03 90) (size 1.1 0.6) (layers "F.Paste") (roundrect_rratio 0.25) (tstamp e3e63e06-73c7-41cf-b30c-2953a4afde17))
  (pad "" smd circle (at -5.95 -4.25 270) (size 0.95 0.95) (layers "F.Paste") (tstamp 2b2d02d0-861e-484e-98af-76ad5ec10a19))
  (pad "" smd circle (at -5.95 -2.55 270) (size 0.95 0.95) (layers "F.Paste") (tstamp 14b48ff7-2689-4ad3-a776-56542169a624))
  (pad "" smd circle (at -5.95 -0.85 270) (size 0.95 0.95) (layers "F.Paste") (tstamp 4202fc72-5ad2-4e5d-abc1-5a13777ee0fb))
  (pad "" smd circle (at -5.95 0.85 270) (size 0.95 0.95) (layers "F.Paste") (tstamp 156fc76a-4e52-4298-8502-d859ac78c07d))
  (pad "" smd circle (at -5.95 2.55 270) (size 0.95 0.95) (layers "F.Paste") (tstamp 9e2dfceb-5e29-4104-9049-5cde0280ee55))
  (pad "" smd circle (at -5.95 4.25 270) (size 0.95 0.95) (layers "F.Paste") (tstamp 64214c60-4688-4f8a-938f-818105d18d53))
  (pad "" smd roundrect (at -5.25 -11.03 270) (size 1.1 0.6) (layers "F.Paste") (roundrect_rratio 0.25) (tstamp 353307cc-0b3f-4400-ac09-05d9cdbb708e))
  (pad "" smd roundrect (at -5.25 11.03 90) (size 1.1 0.6) (layers "F.Paste") (roundrect_rratio 0.25) (tstamp 7c3d73da-34fb-4fca-9cd8-57a55c78d834))
  (pad "" smd circle (at -4.25 -4.25 270) (size 0.95 0.95) (layers "F.Paste") (tstamp f633f378-f7ab-47ca-850c-6fc04348b1d1))
  (pad "" smd circle (at -4.25 -2.55 270) (size 0.95 0.95) (layers "F.Paste") (tstamp 8905f389-265b-40f7-9e5b-31ba212922eb))
  (pad "" smd circle (at -4.25 -0.85 270) (size 0.95 0.95) (layers "F.Paste") (tstamp 36733aa9-2374-46bb-b660-87f95d2680aa))
  (pad "" smd circle (at -4.25 0.85 270) (size 0.95 0.95) (layers "F.Paste") (tstamp ae700de5-667d-40ae-8885-0b9b8d11de92))
  (pad "" smd circle (at -4.25 2.55 270) (size 0.95 0.95) (layers "F.Paste") (tstamp 43de4f0e-05a9-4fb0-adb7-cc4f6eb32c34))
  (pad "" smd circle (at -4.25 4.25 270) (size 0.95 0.95) (layers "F.Paste") (tstamp 189cff8a-f25e-499b-a381-a05b8ee8c6c6))
  (pad "" smd roundrect (at -4.15 -11.03 270) (size 1.1 0.6) (layers "F.Paste") (roundrect_rratio 0.25) (tstamp f1bccefa-9050-4660-8f65-af62a216cf84))
  (pad "" smd roundrect (at -4.15 11.03 90) (size 1.1 0.6) (layers "F.Paste") (roundrect_rratio 0.25) (tstamp bb16a516-4131-4a51-bbea-b711bad6e2cf))
  (pad "" smd roundrect (at -3.05 -11.03 270) (size 1.1 0.6) (layers "F.Paste") (roundrect_rratio 0.25) (tstamp 898bc8c4-26bf-49d8-bb4c-382409bb277a))
  (pad "" smd roundrect (at -3.05 11.03 90) (size 1.1 0.6) (layers "F.Paste") (roundrect_rratio 0.25) (tstamp 0644b55a-1cd5-4c60-a275-f61518e9372f))
  (pad "" smd circle (at -2.55 -7.65 270) (size 0.95 0.95) (layers "F.Paste") (tstamp 7b0a639f-b224-4120-995b-ff8f50806ed0))
  (pad "" smd circle (at -2.55 -5.95 270) (size 0.95 0.95) (layers "F.Paste") (tstamp ebc036da-ab5e-4e7d-baa8-a60aef5285af))
  (pad "" smd circle (at -2.55 5.95 270) (size 0.95 0.95) (layers "F.Paste") (tstamp 34c28922-36ed-419f-92b7-5d23ee3b58b0))
  (pad "" smd circle (at -2.55 7.65 270) (size 0.95 0.95) (layers "F.Paste") (tstamp 5012d35e-3af9-4e53-b856-1b235e1f2af6))
  (pad "" smd roundrect (at -1.95 -11.03 270) (size 1.1 0.6) (layers "F.Paste") (roundrect_rratio 0.25) (tstamp 1e2f1ccc-8dd1-40d6-ac37-69959e78ae8e))
  (pad "" smd roundrect (at -1.95 11.03 90) (size 1.1 0.6) (layers "F.Paste") (roundrect_rratio 0.25) (tstamp c3a18306-5bae-458e-939c-7063afc78e86))
  (pad "" smd circle (at -0.85 -7.65 270) (size 0.95 0.95) (layers "F.Paste") (tstamp ab3e3f49-c306-409f-8020-3f0cf47a99fa))
  (pad "" smd circle (at -0.85 -5.95 270) (size 0.95 0.95) (layers "F.Paste") (tstamp 54178168-8e05-4a05-a4be-ac83781bd437))
  (pad "" smd circle (at -0.85 5.95 270) (size 0.95 0.95) (layers "F.Paste") (tstamp 0e40bd92-1dae-45fd-ad04-0e17634efa22))
  (pad "" smd circle (at -0.85 7.65 270) (size 0.95 0.95) (layers "F.Paste") (tstamp f5a03a26-e2d4-4109-bbe5-768ed5a1f848))
  (pad "" smd roundrect (at 0.55 -11.03 270) (size 1.1 0.6) (layers "F.Paste") (roundrect_rratio 0.25) (tstamp 81f2c869-7eda-4811-a7bf-b55a07a1034f))
  (pad "" smd roundrect (at 0.55 11.03 90) (size 1.1 0.6) (layers "F.Paste") (roundrect_rratio 0.25) (tstamp 6e28b39f-59a1-4f79-b700-ebfff91fcf50))
  (pad "" smd circle (at 0.85 -7.65 270) (size 0.95 0.95) (layers "F.Paste") (tstamp 09446378-d79d-4841-87d1-09009e11e21c))
  (pad "" smd circle (at 0.85 -5.95 270) (size 0.95 0.95) (layers "F.Paste") (tstamp f39909b3-935b-4019-92fb-ffe5058f03e6))
  (pad "" smd circle (at 0.85 5.95 270) (size 0.95 0.95) (layers "F.Paste") (tstamp c10ca692-b6c0-4ed0-9637-c68f8ec8190f))
  (pad "" smd circle (at 0.85 7.65 270) (size 0.95 0.95) (layers "F.Paste") (tstamp 761339d8-d526-4317-8e37-6a6641c36d72))
  (pad "" smd roundrect (at 1.65 -11.03 270) (size 1.1 0.6) (layers "F.Paste") (roundrect_rratio 0.25) (tstamp aa9dfa4f-2515-48fd-9047-77f543a52e95))
  (pad "" smd roundrect (at 1.65 11.03 90) (size 1.1 0.6) (layers "F.Paste") (roundrect_rratio 0.25) (tstamp 1793262c-441a-404d-ae19-e3a969afc778))
  (pad "" smd circle (at 2.55 -7.65 270) (size 0.95 0.95) (layers "F.Paste") (tstamp ac9bddd6-4893-47e3-9e2e-f4af2e54d2fc))
  (pad "" smd circle (at 2.55 -5.95 270) (size 0.95 0.95) (layers "F.Paste") (tstamp 65e9d290-c9d2-4037-acb8-6cf6d99e93a8))
  (pad "" smd circle (at 2.55 5.95 270) (size 0.95 0.95) (layers "F.Paste") (tstamp 459f0a21-fc28-4a1e-ae25-ecf145a540f6))
  (pad "" smd circle (at 2.55 7.65 270) (size 0.95 0.95) (layers "F.Paste") (tstamp 575ccbcf-39fa-4c68-ad4f-dfaccd58a217))
  (pad "" smd roundrect (at 2.75 -11.03 270) (size 1.1 0.6) (layers "F.Paste") (roundrect_rratio 0.25) (tstamp 121e902f-8d16-4f09-a0ee-b8e6201e710a))
  (pad "" smd roundrect (at 2.75 11.03 90) (size 1.1 0.6) (layers "F.Paste") (roundrect_rratio 0.25) (tstamp a4e64c80-b2df-4558-a2cb-a8c6591229fc))
  (pad "" smd roundrect (at 3.85 -11.03 270) (size 1.1 0.6) (layers "F.Paste") (roundrect_rratio 0.25) (tstamp 5906eb7c-88a4-4783-8adc-51ff76f8c379))
  (pad "" smd roundrect (at 3.85 11.03 90) (size 1.1 0.6) (layers "F.Paste") (roundrect_rratio 0.25) (tstamp ffc55b92-f3fa-4c8b-bea2-60615047c06c))
  (pad "" smd circle (at 4.25 -4.25 270) (size 0.95 0.95) (layers "F.Paste") (tstamp ab2d11b6-fb2a-4f46-ae3f-451fe5e806a1))
  (pad "" smd circle (at 4.25 -2.55 270) (size 0.95 0.95) (layers "F.Paste") (tstamp b10980a7-95d9-4dee-b09a-64b12f96c76b))
  (pad "" smd circle (at 4.25 -0.85 270) (size 0.95 0.95) (layers "F.Paste") (tstamp 970cbb54-6288-4c80-9df7-d22f28d02755))
  (pad "" smd circle (at 4.25 0.85 270) (size 0.95 0.95) (layers "F.Paste") (tstamp 8e03dd6d-803c-4542-b3e0-9449138b9fa6))
  (pad "" smd circle (at 4.25 2.55 270) (size 0.95 0.95) (layers "F.Paste") (tstamp eb94e8ae-d252-44ad-9a8c-740b5c98d893))
  (pad "" smd circle (at 4.25 4.25 270) (size 0.95 0.95) (layers "F.Paste") (tstamp 2c18465e-f2aa-4aab-b685-8cc6360498cf))
  (pad "" smd roundrect (at 4.95 -11.03 270) (size 1.1 0.6) (layers "F.Paste") (roundrect_rratio 0.25) (tstamp 0687adde-26ff-4cf0-aed7-c6343043b33a))
  (pad "" smd roundrect (at 4.95 11.03 90) (size 1.1 0.6) (layers "F.Paste") (roundrect_rratio 0.25) (tstamp 2a6106df-4d9d-44f4-8350-d2c326433144))
  (pad "" smd circle (at 5.95 -4.25 270) (size 0.95 0.95) (layers "F.Paste") (tstamp e37daa04-b262-4f7e-8ef7-14142bb24e98))
  (pad "" smd circle (at 5.95 -2.55 270) (size 0.95 0.95) (layers "F.Paste") (tstamp 0c65036a-a2a3-41ee-ae0e-0b5af6f3a0fd))
  (pad "" smd circle (at 5.95 -0.85 270) (size 0.95 0.95) (layers "F.Paste") (tstamp 46f9bc0a-ab12-4df4-bfac-e2e7f259c3f7))
  (pad "" smd circle (at 5.95 0.85 270) (size 0.95 0.95) (layers "F.Paste") (tstamp f7aca699-1006-4516-9edb-e5c3b21b094c))
  (pad "" smd circle (at 5.95 2.55 270) (size 0.95 0.95) (layers "F.Paste") (tstamp 14aa5eb9-2460-4840-8115-3a4c8eee0e11))
  (pad "" smd circle (at 5.95 4.25 270) (size 0.95 0.95) (layers "F.Paste") (tstamp 1f67d389-3fd0-42bd-b3da-83a032752c96))
  (pad "" smd roundrect (at 6.05 -11.03 270) (size 1.1 0.6) (layers "F.Paste") (roundrect_rratio 0.25) (tstamp 4f2d1a00-8e9d-4c55-a897-f5547fe61cf9))
  (pad "" smd roundrect (at 6.05 11.03 90) (size 1.1 0.6) (layers "F.Paste") (roundrect_rratio 0.25) (tstamp 66f4530e-08ee-40bf-ac10-c820cb0959c7))
  (pad "" smd roundrect (at 7.15 -11.03 270) (size 1.1 0.6) (layers "F.Paste") (roundrect_rratio 0.25) (tstamp dab0adaf-70f3-4ff6-af11-f5edf017c5df))
  (pad "" smd roundrect (at 7.15 11.03 90) (size 1.1 0.6) (layers "F.Paste") (roundrect_rratio 0.25) (tstamp 79ab6e16-661e-417e-b40d-0e1f11e6a610))
  (pad "" smd roundrect (at 9.18 -9.7 180) (size 1.1 0.6) (layers "F.Paste") (roundrect_rratio 0.25) (tstamp 42116bfd-457d-4593-ac30-a7ae4508e2ee))
  (pad "" smd roundrect (at 9.18 -8.6 180) (size 1.1 0.6) (layers "F.Paste") (roundrect_rratio 0.25) (tstamp 44494465-1977-4c21-9649-2ca8159a3777))
  (pad "" smd roundrect (at 9.18 -7.5 180) (size 1.1 0.6) (layers "F.Paste") (roundrect_rratio 0.25) (tstamp 2ceeb7df-cc02-4f20-aa03-f37494aa0983))
  (pad "" smd roundrect (at 9.18 -6.4 180) (size 1.1 0.6) (layers "F.Paste") (roundrect_rratio 0.25) (tstamp cad1c256-eff8-44a4-a318-9873ce007c5c))
  (pad "" smd roundrect (at 9.18 -5.3 180) (size 1.1 0.6) (layers "F.Paste") (roundrect_rratio 0.25) (tstamp e55f51c1-f799-4019-9d6b-948cb7d56ce1))
  (pad "" smd roundrect (at 9.18 -4.2 180) (size 1.1 0.6) (layers "F.Paste") (roundrect_rratio 0.25) (tstamp 75e40eac-348b-4303-99b0-79bb64d549f0))
  (pad "" smd roundrect (at 9.18 -3.1 180) (size 1.1 0.6) (layers "F.Paste") (roundrect_rratio 0.25) (tstamp 0b3878ee-bbb7-493e-8b5a-03db13f60cb9))
  (pad "" smd roundrect (at 9.18 -2 180) (size 1.1 0.6) (layers "F.Paste") (roundrect_rratio 0.25) (tstamp 20d25cef-ebb6-4a11-9c91-dc241224cf11))
  (pad "" smd roundrect (at 9.18 -0.9 180) (size 1.1 0.6) (layers "F.Paste") (roundrect_rratio 0.25) (tstamp 0f8cfa67-6c37-4c56-98c0-e134c16a7f3e))
  (pad "" smd roundrect (at 9.18 0.2 180) (size 1.1 0.6) (layers "F.Paste") (roundrect_rratio 0.25) (tstamp 1d7b49bb-5661-4d14-ad7d-5f567b56ffc4))
  (pad "" smd roundrect (at 9.18 1.9 180) (size 1.1 0.6) (layers "F.Paste") (roundrect_rratio 0.25) (tstamp 51b1cb9f-06f8-489f-955a-a12b90179c08))
  (pad "" smd roundrect (at 9.18 3 180) (size 1.1 0.6) (layers "F.Paste") (roundrect_rratio 0.25) (tstamp 8343df9c-b6a2-48e3-8692-e663b367cfac))
  (pad "" smd roundrect (at 9.18 4.1 180) (size 1.1 0.6) (layers "F.Paste") (roundrect_rratio 0.25) (tstamp fe766097-3f5c-42f5-aa02-29f2ac723b79))
  (pad "" smd roundrect (at 9.18 5.2 180) (size 1.1 0.6) (layers "F.Paste") (roundrect_rratio 0.25) (tstamp be4c3440-921f-4e76-b410-234008bbba73))
  (pad "" smd roundrect (at 9.18 6.3 180) (size 1.1 0.6) (layers "F.Paste") (roundrect_rratio 0.25) (tstamp 62e97d68-756d-4e5a-b7a0-16dba9917083))
  (pad "" smd roundrect (at 9.18 7.4 180) (size 1.1 0.6) (layers "F.Paste") (roundrect_rratio 0.25) (tstamp d7072d4d-124e-49ed-9ac7-04c61c7905c0))
  (pad "" smd roundrect (at 9.18 8.5 180) (size 1.1 0.6) (layers "F.Paste") (roundrect_rratio 0.25) (tstamp 8229cf0f-f13e-4fa4-b883-d7fe056db563))
  (pad "" smd roundrect (at 9.2 9.6 180) (size 1.1 0.6) (layers "F.Paste") (roundrect_rratio 0.25) (tstamp a74a8b72-489c-4618-93d4-da4b61ecf152))
  (pad "1" smd roundrect (at -9.18 -9.7) (size 1.15 0.7) (layers "F.Cu" "F.Mask") (roundrect_rratio 0.2) (tstamp b89e0d57-9d8a-4bc7-a475-6e5f8524491f))
  (pad "2" smd roundrect (at -9.18 -8.6) (size 1.15 0.7) (layers "F.Cu" "F.Mask") (roundrect_rratio 0.2) (tstamp 98e98de7-916c-4507-bb73-528d674b2607))
  (pad "3" smd roundrect (at -9.18 -7.5) (size 1.15 0.7) (layers "F.Cu" "F.Mask") (roundrect_rratio 0.2) (tstamp 759535fe-3004-472a-95fb-af4c8f6347dc))
  (pad "4" smd roundrect (at -9.18 -6.4) (size 1.15 0.7) (layers "F.Cu" "F.Mask") (roundrect_rratio 0.2) (tstamp 471ae98c-f9c3-46a8-acfe-182e13afc0fa))
  (pad "5" smd roundrect (at -9.18 -5.3) (size 1.15 0.7) (layers "F.Cu" "F.Mask") (roundrect_rratio 0.2) (tstamp 9014dbd8-3d22-4d8a-ae3d-f4685d4627ee))
  (pad "6" smd roundrect (at -9.18 -4.2) (size 1.15 0.7) (layers "F.Cu" "F.Mask") (roundrect_rratio 0.2) (tstamp 0cbc4a3b-e65f-4e40-ad87-e1a69f657f6f))
  (pad "7" smd roundrect (at -9.18 -3.1) (size 1.15 0.7) (layers "F.Cu" "F.Mask") (roundrect_rratio 0.2) (tstamp 871237b4-30bf-4266-9327-9db519c29861))
  (pad "8" smd roundrect (at -9.18 -2) (size 1.15 0.7) (layers "F.Cu" "F.Mask") (roundrect_rratio 0.2) (tstamp 4ce36ecb-339a-41b8-b85a-4a9a9aabcf96))
  (pad "9" smd roundrect (at -9.18 -0.9) (size 1.15 0.7) (layers "F.Cu" "F.Mask") (roundrect_rratio 0.2) (tstamp ca031062-0e01-48b8-9bc1-83953b10cb75))
  (pad "10" smd roundrect (at -9.18 0.2) (size 1.15 0.7) (layers "F.Cu" "F.Mask") (roundrect_rratio 0.2) (tstamp 359f3887-ec8e-4f47-8c49-a4f69e1dada2))
  (pad "11" smd roundrect (at -9.18 1.9) (size 1.15 0.7) (layers "F.Cu" "F.Mask") (roundrect_rratio 0.2) (tstamp 69a45ac3-b186-47d0-9572-287c759aea7a))
  (pad "12" smd roundrect (at -9.18 3) (size 1.15 0.7) (layers "F.Cu" "F.Mask") (roundrect_rratio 0.2) (tstamp 25d5ce2a-eda9-4c11-86eb-bd0ce6042326))
  (pad "13" smd roundrect (at -9.18 4.1) (size 1.15 0.7) (layers "F.Cu" "F.Mask") (roundrect_rratio 0.2) (tstamp 9bf5a43e-0797-47ee-a6ad-066095f0c30b))
  (pad "14" smd roundrect (at -9.18 5.2) (size 1.15 0.7) (layers "F.Cu" "F.Mask") (roundrect_rratio 0.2) (tstamp e300438f-e791-47eb-a86b-264c7c2b4d24))
  (pad "15" smd roundrect (at -9.18 6.3) (size 1.15 0.7) (layers "F.Cu" "F.Mask") (roundrect_rratio 0.2) (tstamp 61df2f77-700f-4192-90b8-e0ef65bf59df))
  (pad "16" smd roundrect (at -9.18 7.4) (size 1.15 0.7) (layers "F.Cu" "F.Mask") (roundrect_rratio 0.2) (tstamp 20ba6fda-d888-4195-b1d4-8b8b68002d38))
  (pad "17" smd roundrect (at -9.18 8.5) (size 1.15 0.7) (layers "F.Cu" "F.Mask") (roundrect_rratio 0.2) (tstamp b9664419-6bcc-42da-954d-43359cb4e40d))
  (pad "18" smd roundrect (at -9.18 9.6) (size 1.15 0.7) (layers "F.Cu" "F.Mask") (roundrect_rratio 0.2) (tstamp 8ec5a789-d081-435f-acf0-5b00c12109f2))
  (pad "19" smd roundrect (at -7.45 11.03) (size 0.7 1.15) (layers "F.Cu" "F.Mask") (roundrect_rratio 0.2) (tstamp 04e337c2-b69d-4594-b426-010234dc3f64))
  (pad "20" smd roundrect (at -6.35 11.03) (size 0.7 1.15) (layers "F.Cu" "F.Mask") (roundrect_rratio 0.2) (tstamp 72d05287-71dd-4280-a730-1e242f2d2f0c))
  (pad "21" smd roundrect (at -5.25 11.03) (size 0.7 1.15) (layers "F.Cu" "F.Mask") (roundrect_rratio 0.2) (tstamp d379084d-0ba2-457a-be4d-05d61584f396))
  (pad "22" smd roundrect (at -4.15 11.03) (size 0.7 1.15) (layers "F.Cu" "F.Mask") (roundrect_rratio 0.2) (tstamp 0e29bb03-d18e-4193-90f9-d82adca9f049))
  (pad "23" smd roundrect (at -3.05 11.03) (size 0.7 1.15) (layers "F.Cu" "F.Mask") (roundrect_rratio 0.2) (tstamp c8994f6e-a6c5-4baf-856d-e50473615f1e))
  (pad "24" smd roundrect (at -1.95 11.03) (size 0.7 1.15) (layers "F.Cu" "F.Mask") (roundrect_rratio 0.2) (tstamp 1695d2a0-fa57-411f-853f-70f8a9f34c69))
  (pad "25" smd roundrect (at 0.55 11.03) (size 0.7 1.15) (layers "F.Cu" "F.Mask") (roundrect_rratio 0.2) (tstamp e92eef64-b0ca-4943-a02e-57e373991e44))
  (pad "26" smd roundrect (at 1.65 11.03) (size 0.7 1.15) (layers "F.Cu" "F.Mask") (roundrect_rratio 0.2) (tstamp e4e44809-2c5e-4224-9310-cf2b04a1e179))
  (pad "27" smd roundrect (at 2.75 11.03) (size 0.7 1.15) (layers "F.Cu" "F.Mask") (roundrect_rratio 0.2) (tstamp 011f0ba3-8f4d-4194-90ca-e724f568a585))
  (pad "28" smd roundrect (at 3.85 11.03) (size 0.7 1.15) (layers "F.Cu" "F.Mask") (roundrect_rratio 0.2) (tstamp ca56926e-5906-496d-8bf2-db8ebbfbe54c))
  (pad "29" smd roundrect (at 4.95 11.03) (size 0.7 1.15) (layers "F.Cu" "F.Mask") (roundrect_rratio 0.2) (tstamp b26753a5-3d8f-4d08-a471-82dcbed22d43))
  (pad "30" smd roundrect (at 6.05 11.03) (size 0.7 1.15) (layers "F.Cu" "F.Mask") (roundrect_rratio 0.2) (tstamp 6f9e353e-3d07-4b2b-8326-e7271a8781fa))
  (pad "31" smd roundrect (at 7.15 11.03) (size 0.7 1.15) (layers "F.Cu" "F.Mask") (roundrect_rratio 0.2) (tstamp 09a05f64-da4f-4274-84cb-31d0679baf26))
  (pad "32" smd roundrect (at 9.18 9.6) (size 1.15 0.7) (layers "F.Cu" "F.Mask") (roundrect_rratio 0.2) (tstamp 8767b828-7903-43b3-9a6b-d1eba9e4e058))
  (pad "33" smd roundrect (at 9.18 8.5) (size 1.15 0.7) (layers "F.Cu" "F.Mask") (roundrect_rratio 0.2) (tstamp a8007c97-4c31-4444-802e-652749096aa6))
  (pad "34" smd roundrect (at 9.18 7.4) (size 1.15 0.7) (layers "F.Cu" "F.Mask") (roundrect_rratio 0.2) (tstamp a673956c-8ed4-4c6c-8f55-af3f632c2b59))
  (pad "35" smd roundrect (at 9.18 6.3) (size 1.15 0.7) (layers "F.Cu" "F.Mask") (roundrect_rratio 0.2) (tstamp cea04ae3-662c-4542-b96e-ae49a686326a))
  (pad "36" smd roundrect (at 9.18 5.2) (size 1.15 0.7) (layers "F.Cu" "F.Mask") (roundrect_rratio 0.2) (tstamp 23996e17-f993-4377-862f-ed055db56126))
  (pad "37" smd roundrect (at 9.18 4.1) (size 1.15 0.7) (layers "F.Cu" "F.Mask") (roundrect_rratio 0.2) (tstamp 071783b0-2389-4f63-8a33-9f695b2622c1))
  (pad "38" smd roundrect (at 9.18 3) (size 1.15 0.7) (layers "F.Cu" "F.Mask") (roundrect_rratio 0.2) (tstamp 2d515e1b-1662-48a2-8295-388ac45ec7a7))
  (pad "39" smd roundrect (at 9.18 1.9) (size 1.15 0.7) (layers "F.Cu" "F.Mask") (roundrect_rratio 0.2) (tstamp 9a982a29-9cdf-443d-8957-df60e6a647ab))
  (pad "40" smd roundrect (at 9.18 0.2) (size 1.15 0.7) (layers "F.Cu" "F.Mask") (roundrect_rratio 0.2) (tstamp d3279e95-12b7-46da-b6e8-5bb6874ad586))
  (pad "41" smd roundrect (at 9.18 -0.9) (size 1.15 0.7) (layers "F.Cu" "F.Mask") (roundrect_rratio 0.2) (tstamp 14261c4d-2dc4-4f21-9134-af22a2415a30))
  (pad "42" smd roundrect (at 9.18 -2) (size 1.15 0.7) (layers "F.Cu" "F.Mask") (roundrect_rratio 0.2) (tstamp f282e82b-f1c7-47cb-8cf9-6801d539c84d))
  (pad "43" smd roundrect (at 9.18 -3.1) (size 1.15 0.7) (layers "F.Cu" "F.Mask") (roundrect_rratio 0.2) (tstamp f63b052b-efc1-4cac-adc1-c4b9551305c8))
  (pad "44" smd roundrect (at 9.18 -4.2) (size 1.15 0.7) (layers "F.Cu" "F.Mask") (roundrect_rratio 0.2) (tstamp d7fd7d5a-a725-4db2-bb43-13a8c7c37b15))
  (pad "45" smd roundrect (at 9.18 -5.3) (size 1.15 0.7) (layers "F.Cu" "F.Mask") (roundrect_rratio 0.2) (tstamp 8bc2d9a0-a122-42c4-ba49-6373d42d3aea))
  (pad "46" smd roundrect (at 9.18 -6.4) (size 1.15 0.7) (layers "F.Cu" "F.Mask") (roundrect_rratio 0.2) (tstamp b5aa58f7-6aba-4356-bd81-c9dcfbe8dc87))
  (pad "47" smd roundrect (at 9.18 -7.5) (size 1.15 0.7) (layers "F.Cu" "F.Mask") (roundrect_rratio 0.2) (tstamp eccf2ce9-356f-4e97-9064-6e70b3beb637))
  (pad "48" smd roundrect (at 9.18 -8.6) (size 1.15 0.7) (layers "F.Cu" "F.Mask") (roundrect_rratio 0.2) (tstamp 84fd5e29-0cc7-47fd-863f-ac7ee4e112da))
  (pad "49" smd roundrect (at 9.18 -9.7) (size 1.15 0.7) (layers "F.Cu" "F.Mask") (roundrect_rratio 0.2) (tstamp cffb31bc-209f-4b6e-b567-f59754f95c8d))
  (pad "50" smd roundrect (at 7.15 -11.03) (size 0.7 1.15) (layers "F.Cu" "F.Mask") (roundrect_rratio 0.2) (tstamp ca715e0b-4d85-47ce-971e-90e7f75db811))
  (pad "51" smd roundrect (at 6.05 -11.03) (size 0.7 1.15) (layers "F.Cu" "F.Mask") (roundrect_rratio 0.2) (tstamp 12baf92f-fb28-44dc-a453-4b78ff145e07))
  (pad "52" smd roundrect (at 4.95 -11.03) (size 0.7 1.15) (layers "F.Cu" "F.Mask") (roundrect_rratio 0.2) (tstamp 18ea4348-8ba2-495e-9366-a90d88f5f97c))
  (pad "53" smd roundrect (at 3.85 -11.03) (size 0.7 1.15) (layers "F.Cu" "F.Mask") (roundrect_rratio 0.2) (tstamp 0bf36c74-2012-4828-ae79-ac794d00d220))
  (pad "54" smd roundrect (at 2.75 -11.03) (size 0.7 1.15) (layers "F.Cu" "F.Mask") (roundrect_rratio 0.2) (tstamp 74deb1e9-6998-4c71-8041-116dd241187c))
  (pad "55" smd roundrect (at 1.65 -11.03) (size 0.7 1.15) (layers "F.Cu" "F.Mask") (roundrect_rratio 0.2) (tstamp 9b3bde02-028a-406e-a438-ea287fcd26ec))
  (pad "56" smd roundrect (at 0.55 -11.03) (size 0.7 1.15) (layers "F.Cu" "F.Mask") (roundrect_rratio 0.2) (tstamp 15cbbaa4-4675-4cd7-9cc6-c84186cdbf1f))
  (pad "57" smd roundrect (at -1.95 -11.03) (size 0.7 1.15) (layers "F.Cu" "F.Mask") (roundrect_rratio 0.2) (tstamp b7d82e0f-a979-4fed-8b74-ef7d5bc7d7bf))
  (pad "58" smd roundrect (at -3.05 -11.03) (size 0.7 1.15) (layers "F.Cu" "F.Mask") (roundrect_rratio 0.2) (tstamp b002b638-9633-4ef6-a360-ab8f8a781cd4))
  (pad "59" smd roundrect (at -4.15 -11.03) (size 0.7 1.15) (layers "F.Cu" "F.Mask") (roundrect_rratio 0.2) (tstamp 9aeb2f03-f948-41f1-a1c5-61c1e6b5d0b1))
  (pad "60" smd roundrect (at -5.25 -11.03) (size 0.7 1.15) (layers "F.Cu" "F.Mask") (roundrect_rratio 0.2) (tstamp 7082da26-538c-4143-bf14-fe043b0b14d7))
  (pad "61" smd roundrect (at -6.35 -11.03) (size 0.7 1.15) (layers "F.Cu" "F.Mask") (roundrect_rratio 0.2) (tstamp 8dd83c39-1299-46ae-a22e-c115ae86311a))
  (pad "62" smd roundrect (at -7.45 -11.03) (size 0.7 1.15) (layers "F.Cu" "F.Mask") (roundrect_rratio 0.2) (tstamp 13de42b2-9c7f-4edb-b3dc-727041d45380))
  (pad "63" smd roundrect (at -5.95 -4.25) (size 1 1) (layers "F.Cu" "F.Mask") (roundrect_rratio 0.2) (tstamp d862e765-7e2d-417b-9cb3-b607faf5e285))
  (pad "64" smd roundrect (at -5.95 -2.55) (size 1 1) (layers "F.Cu" "F.Mask") (roundrect_rratio 0.2) (tstamp 7cc979b6-728b-4d18-ac4f-5a4b683924c9))
  (pad "65" smd roundrect (at -5.95 -0.85) (size 1 1) (layers "F.Cu" "F.Mask") (roundrect_rratio 0.2) (tstamp d4397a2b-15bc-4d58-aedd-d69757d8bc8d))
  (pad "66" smd roundrect (at -5.95 0.85) (size 1 1) (layers "F.Cu" "F.Mask") (roundrect_rratio 0.2) (tstamp 9c59ae46-9152-4067-bc6d-efa00cd26a4f))
  (pad "67" smd roundrect (at -5.95 2.55) (size 1 1) (layers "F.Cu" "F.Mask") (roundrect_rratio 0.2) (tstamp 53e472ca-f339-4e44-a22e-cf9a178e0c27))
  (pad "68" smd roundrect (at -5.95 4.25) (size 1 1) (layers "F.Cu" "F.Mask") (roundrect_rratio 0.2) (tstamp c6e2b50d-632b-4e86-85f7-9460fe001264))
  (pad "69" smd roundrect (at -2.55 7.65 90) (size 1 1) (layers "F.Cu" "F.Mask") (roundrect_rratio 0.2) (tstamp b5157c17-b27b-49e3-a4f8-f120e46954c5))
  (pad "70" smd roundrect (at -0.85 7.65 90) (size 1 1) (layers "F.Cu" "F.Mask") (roundrect_rratio 0.2) (tstamp 3061d414-f68b-4908-a0d9-a1cb61d685b3))
  (pad "71" smd roundrect (at 0.85 7.65 90) (size 1 1) (layers "F.Cu" "F.Mask") (roundrect_rratio 0.2) (tstamp d210e33a-0a1b-4731-9336-ff69c8eeac11))
  (pad "72" smd roundrect (at 2.55 7.65 90) (size 1 1) (layers "F.Cu" "F.Mask") (roundrect_rratio 0.2) (tstamp 5cbd18a9-f7b9-468b-97ec-a395660c7ec7))
  (pad "73" smd roundrect (at 5.95 4.25) (size 1 1) (layers "F.Cu" "F.Mask") (roundrect_rratio 0.2) (tstamp 679f9e9e-4560-47fe-95ac-0a9cd36db69c))
  (pad "74" smd roundrect (at 5.95 2.55) (size 1 1) (layers "F.Cu" "F.Mask") (roundrect_rratio 0.2) (tstamp 94cd6c04-88f6-47c7-aef6-5918ef6b9f2b))
  (pad "75" smd roundrect (at 5.95 0.85) (size 1 1) (layers "F.Cu" "F.Mask") (roundrect_rratio 0.2) (tstamp 19168c8f-6f00-4536-b2b4-1fa2ad9d90a6))
  (pad "76" smd roundrect (at 5.95 -0.85) (size 1 1) (layers "F.Cu" "F.Mask") (roundrect_rratio 0.2) (tstamp 6baa7697-3346-4330-b161-9d915893ff92))
  (pad "77" smd roundrect (at 5.95 -2.55) (size 1 1) (layers "F.Cu" "F.Mask") (roundrect_rratio 0.2) (tstamp 0c16e959-99a9-4c0b-a00b-5e4bcad9714b))
  (pad "78" smd roundrect (at 5.95 -4.25) (size 1 1) (layers "F.Cu" "F.Mask") (roundrect_rratio 0.2) (tstamp 99a57124-b66f-4c61-a69d-278c8940ad54))
  (pad "79" smd roundrect (at 2.55 -7.65 90) (size 1 1) (layers "F.Cu" "F.Mask") (roundrect_rratio 0.2) (tstamp 412126c3-00ba-4ae7-94bb-cf88b16b83fb))
  (pad "80" smd roundrect (at 0.85 -7.65 90) (size 1 1) (layers "F.Cu" "F.Mask") (roundrect_rratio 0.2) (tstamp ed1d8066-cf30-4dbc-954d-479db9d04ece))
  (pad "81" smd roundrect (at -0.85 -7.65 90) (size 1 1) (layers "F.Cu" "F.Mask") (roundrect_rratio 0.2) (tstamp d21ad7a5-4989-4646-a031-6024d11ee6a6))
  (pad "82" smd roundrect (at -2.55 -7.65 90) (size 1 1) (layers "F.Cu" "F.Mask") (roundrect_rratio 0.2) (tstamp 4b24e145-e277-4be0-a465-69d7bc788a89))
  (pad "83" smd roundrect (at -4.25 -4.25) (size 1 1) (layers "F.Cu" "F.Mask") (roundrect_rratio 0.2) (tstamp 68af85e1-154d-4a8b-b5e4-e4f28e1a0440))
  (pad "84" smd roundrect (at -4.25 -2.55) (size 1 1) (layers "F.Cu" "F.Mask") (roundrect_rratio 0.2) (tstamp f5078e05-0882-4e3d-b0bf-9c723cd4cb7e))
  (pad "85" smd roundrect (at -4.25 -0.85) (size 1 1) (layers "F.Cu" "F.Mask") (roundrect_rratio 0.2) (tstamp 50520b82-2dda-4f5a-baea-c699f4b7e52d))
  (pad "86" smd roundrect (at -4.25 0.85) (size 1 1) (layers "F.Cu" "F.Mask") (roundrect_rratio 0.2) (tstamp 8268f63e-73e9-4e2b-87e3-a37cca28709e))
  (pad "87" smd roundrect (at -4.25 2.55) (size 1 1) (layers "F.Cu" "F.Mask") (roundrect_rratio 0.2) (tstamp 07804914-4c5b-41d7-89ee-5c97ef2c1d59))
  (pad "88" smd roundrect (at -4.25 4.25) (size 1 1) (layers "F.Cu" "F.Mask") (roundrect_rratio 0.2) (tstamp 0a35eaee-c225-4f3f-b789-01851be61837))
  (pad "89" smd roundrect (at -2.55 5.95 90) (size 1 1) (layers "F.Cu" "F.Mask") (roundrect_rratio 0.2) (tstamp 4a4125e4-219d-4b78-aa66-ea45730dfc7e))
  (pad "90" smd roundrect (at -0.85 5.95 90) (size 1 1) (layers "F.Cu" "F.Mask") (roundrect_rratio 0.2) (tstamp 2b28845e-a38a-4fe0-96de-012323fb5053))
  (pad "91" smd roundrect (at 0.85 5.95 90) (size 1 1) (layers "F.Cu" "F.Mask") (roundrect_rratio 0.2) (tstamp 6f622b56-26c6-4a9a-95fc-eaea107c8511))
  (pad "92" smd roundrect (at 2.55 5.95 90) (size 1 1) (layers "F.Cu" "F.Mask") (roundrect_rratio 0.2) (tstamp b70cf69b-efac-4b8e-979a-b2cfac86c0e8))
  (pad "93" smd roundrect (at 4.25 4.25) (size 1 1) (layers "F.Cu" "F.Mask") (roundrect_rratio 0.2) (tstamp 6a362c3a-b296-4caa-85ee-14197392d7d4))
  (pad "94" smd roundrect (at 4.25 2.55) (size 1 1) (layers "F.Cu" "F.Mask") (roundrect_rratio 0.2) (tstamp 814ac322-da17-4d05-acb3-703c56d0042b))
  (pad "95" smd roundrect (at 4.25 0.85) (size 1 1) (layers "F.Cu" "F.Mask") (roundrect_rratio 0.2) (tstamp ec82b44e-b687-4a5f-94ce-665e625d731f))
  (pad "96" smd roundrect (at 4.25 -0.85) (size 1 1) (layers "F.Cu" "F.Mask") (roundrect_rratio 0.2) (tstamp 7302fd47-2d49-42b6-8742-1f1307e6188e))
  (pad "97" smd roundrect (at 4.25 -2.55) (size 1 1) (layers "F.Cu" "F.Mask") (roundrect_rratio 0.2) (tstamp 7d1fd501-697c-48c5-9717-88e3fbbaea3a))
  (pad "98" smd roundrect (at 4.25 -4.25) (size 1 1) (layers "F.Cu" "F.Mask") (roundrect_rratio 0.2) (tstamp f2c64548-0e24-45ca-b8ec-335ab612cc95))
  (pad "99" smd roundrect (at 2.55 -5.95 90) (size 1 1) (layers "F.Cu" "F.Mask") (roundrect_rratio 0.2) (tstamp ff46bf5f-4097-4362-8d48-410ff588dafb))
  (pad "100" smd roundrect (at 0.85 -5.95 90) (size 1 1) (layers "F.Cu" "F.Mask") (roundrect_rratio 0.2) (tstamp 1400520e-2dbe-4675-8fc3-69f555b01bc1))
  (pad "101" smd roundrect (at -0.85 -5.95 90) (size 1 1) (layers "F.Cu" "F.Mask") (roundrect_rratio 0.2) (tstamp eaebef6d-41d0-43d7-8eaf-3965e4d22445))
  (pad "102" smd roundrect (at -2.55 -5.95 90) (size 1 1) (layers "F.Cu" "F.Mask") (roundrect_rratio 0.2) (tstamp 3f859764-4863-4e1b-84fc-90fd27cfa929))
  (model "${KICAD7_3DMODEL_DIR}/RF_GSM.3dshapes/Quectel_BG96.wrl"
    (offset (xyz 0 0 0))
    (scale (xyz 1 1 1))
    (rotate (xyz 0 0 0))
  )
)
